{"page":2,"per_page":6,"total":12,"total_pages":2,"tatas":[{"id":7,"email":"mubi@gmail.com","first_name":"mubi","last_name":"begam"},{"id":7,"email":"mubi@gmail.com","first_name":"mubi","last_name":"begam"},{"id":7,"email":"mubi@gmail.com","first_name":"mubi","last_name":"begam"},{"id":7,"email":"mubi@gmail.com","first_name":"mubi","last_name":"begam"}],"airpot":{"url":"http\naju.com","text":"smartnaju"}}